ShoppingDemo/p1.vcd
$date
   Tue Oct 19 10:27:59 2021
$end
$version
  P.20131013
$end
$timescale
  1ps
$end
$scope module test $end
$var wire 1 , change [1] $end
$var wire 1 - change [0] $end
$var wire 1 . sell $end
$var reg 1 $ clk $end
$var reg 1 % rstn $end
$var reg 2 & coin [1:0] $end
$var reg 10 ' buy_oper [9:0] $end
$scope module u_mealy_p3 $end
$var wire 1 ( clk $end
$var wire 1 ) rstn $end
$var wire 1 * coin [1] $end
$var wire 1 + coin [0] $end
$var wire 1 , change [1] $end
$var wire 1 - change [0] $end
$var wire 1 . sell $end
$var reg 3 / st_next [2:0] $end
$var reg 3 0 st_cur [2:0] $end
$var reg 2 1 change_r [1:0] $end
$var reg 1 2 sell_r $end
$upscope $end
$upscope $end
$enddefinitions $end
#0
$dumpvars
0-
0,
0.
0(
0)
0+
0*
0$
0%
b0 &
b0 '
b0 /
b0 0
b0 1
02
$end
#5000
1(
1$
#8000
1)
1%
#10000
0(
0$
#15000
1(
1$
#20000
0(
0$
#25000
1(
1$
#26000
b1010101 '
#30000
0(
1+
0$
b1 &
b10101 '
b1 /
#35000
1(
1$
b10 /
b1 0
#40000
0(
0$
b101 '
#45000
1(
1$
b11 /
b10 0
#50000
0(
0$
b1 '
#55000
1(
1$
b0 /
b11 0
#60000
0(
0$
b0 '
#65000
1.
1(
1$
b1 /
b0 0
12
#70000
0(
0+
0$
b0 &
b0 /
#75000
0.
1(
1$
02
#80000
0(
0$
#85000
1(
1$
#86000
b100110 '
#90000
0(
1*
0$
b10 &
b1001 '
b10 /
#95000
1(
1$
b0 /
b10 0
#100000
0(
1+
0*
0$
b1 &
b10 '
b11 /
#105000
1(
1$
b0 /
b11 0
#110000
0(
0+
1*
0$
b10 &
b0 '
#115000
1-
1.
1(
1$
b10 /
b0 0
b1 1
12
#120000
0(
0*
0$
b0 &
b0 /
#125000
0-
0.
1(
1$
b0 1
02
#130000
0(
0$
#135000
1(
1$
#140000
0(
0$
#145000
1(
1$
#146000
b11001 '
#150000
0(
1+
0$
b1 &
b110 '
b1 /
#155000
1(
1$
b10 /
b1 0
#160000
0(
0+
1*
0$
b10 &
b1 '
b11 /
#165000
1(
1$
b0 /
b11 0
#170000
0(
1+
0*
0$
b1 &
b0 '
#175000
1.
1(
1$
b1 /
b0 0
12
#180000
0(
0+
0$
b0 &
b0 /
#185000
0.
1(
1$
02
#190000
0(
0$
#195000
1(
1$
#200000
0(
0$
#205000
1(
1$
#206000
b10010101 '
#210000
0(
1+
0$
b1 &
b100101 '
b1 /
#215000
1(
1$
b10 /
b1 0
#220000
0(
0$
b1001 '
#225000
1(
1$
b11 /
b10 0
#230000
0(
0$
b10 '
#235000
1(
1$
b0 /
b11 0
#240000
0(
0+
1*
0$
b10 &
b0 '
#245000
1-
1.
1(
1$
b10 /
b0 0
b1 1
12
#250000
0(
0*
0$
b0 &
b0 /
#255000
0-
0.
1(
1$
b0 1
02
