shopping/p1.vcd
$date
	Tue Oct 19 10:17:40 2021
$end
$version
	Icarus Verilog
$end
$timescale
	1ps
$end
$scope module test $end
$var wire 1 ! sell $end
$var wire 2 " change [1:0] $end
$var reg 10 # buy_oper [9:0] $end
$var reg 1 $ clk $end
$var reg 2 % coin [1:0] $end
$var reg 1 & rstn $end
$scope module u_mealy_p3 $end
$var wire 2 ' change [1:0] $end
$var wire 1 $ clk $end
$var wire 2 ( coin [1:0] $end
$var wire 1 & rstn $end
$var wire 1 ! sell $end
$var reg 2 ) change_r [1:0] $end
$var reg 1 * sell_r $end
$var reg 3 + st_cur [2:0] $end
$var reg 3 , st_next [2:0] $end
$upscope $end
$upscope $end
$scope module vending_machine_moore $end
$var wire 2 - change [1:0] $end
$var wire 1 . clk $end
$var wire 2 / coin [1:0] $end
$var wire 1 0 rstn $end
$var wire 1 1 sell $end
$var reg 2 2 change_r [1:0] $end
$var reg 1 3 sell_r $end
$var reg 3 4 st_cur [2:0] $end
$var reg 3 5 st_next [2:0] $end
$upscope $end
$scope module vending_machine_p1 $end
$var wire 2 6 change [1:0] $end
$var wire 1 7 clk $end
$var wire 2 8 coin [1:0] $end
$var wire 1 9 rstn $end
$var wire 1 : sell $end
$var reg 2 ; change_r [1:0] $end
$var reg 1 < sell_r $end
$var reg 3 = st_cur [2:0] $end
$upscope $end
$scope module vending_machine_p2 $end
$var wire 2 > change [1:0] $end
$var wire 1 ? clk $end
$var wire 2 @ coin [1:0] $end
$var wire 1 A rstn $end
$var wire 1 B sell $end
$var reg 2 C change_r [1:0] $end
$var reg 1 D sell_r $end
$var reg 3 E st_cur [2:0] $end
$var reg 3 F st_next [2:0] $end
$upscope $end
$enddefinitions $end
#0
$dumpvars
b0 F
bx E
0D
b0 C
0B
zA
bz @
z?
b0 >
bx =
x<
bx ;
x:
z9
bz 8
z7
bx 6
b0 5
bx 4
x3
bx 2
x1
z0
bz /
z.
bx -
b0 ,
b0 +
0*
b0 )
b0 (
b0 '
0&
b0 %
0$
b0 #
b0 "
0!
$end
#5000
1$
#8000
1&
#10000
0$
#15000
1$
#20000
0$
#25000
1$
#26000
b1010101 #
#30000
b1 ,
b10101 #
b1 %
b1 (
0$
#35000
b10 ,
b1 +
1$
#40000
b101 #
0$
#45000
b11 ,
b10 +
1$
#50000
b1 #
0$
#55000
b0 ,
b11 +
1$
#60000
b0 #
0$
#65000
b1 ,
1!
1*
b0 +
1$
#70000
b0 ,
b0 %
b0 (
0$
#75000
0!
0*
1$
#80000
0$
#85000
1$
#86000
b100110 #
#90000
b10 ,
b1001 #
b10 %
b10 (
0$
#95000
b0 ,
b10 +
1$
#100000
b11 ,
b10 #
b1 %
b1 (
0$
#105000
b0 ,
b11 +
1$
#110000
b0 #
b10 %
b10 (
0$
#115000
b10 ,
b0 +
1!
1*
b1 "
b1 '
b1 )
1$
#120000
b0 ,
b0 %
b0 (
0$
#125000
0!
0*
b0 "
b0 '
b0 )
1$
#130000
0$
#135000
1$
#140000
0$
#145000
1$
#146000
b11001 #
#150000
b1 ,
b110 #
b1 %
b1 (
0$
#155000
b10 ,
b1 +
1$
#160000
b11 ,
b1 #
b10 %
b10 (
0$
#165000
b0 ,
b11 +
1$
#170000
b0 #
b1 %
b1 (
0$
#175000
b1 ,
b0 +
1!
1*
1$
#180000
b0 ,
b0 %
b0 (
0$
#185000
0!
0*
1$
#190000
0$
#195000
1$
#200000
0$
#205000
1$
#206000
b10010101 #
#210000
b1 ,
b100101 #
b1 %
b1 (
0$
#215000
b10 ,
b1 +
1$
#220000
b1001 #
0$
#225000
b11 ,
b10 +
1$
#230000
b10 #
0$
#235000
b0 ,
b11 +
1$
#240000
b0 #
b10 %
b10 (
0$
#245000
b10 ,
1!
1*
b1 "
b1 '
b1 )
b0 +
1$
#250000
b0 ,
b0 %
b0 (
0$
#255000
0!
0*
b0 "
b0 '
b0 )
1$
